\relax 
\providecommand\hyper@newdestlabel[2]{}
\providecommand\HyperFirstAtBeginDocument{\AtBeginDocument}
\HyperFirstAtBeginDocument{\ifx\hyper@anchor\@undefined
\global\let\oldcontentsline\contentsline
\gdef\contentsline#1#2#3#4{\oldcontentsline{#1}{#2}{#3}}
\global\let\oldnewlabel\newlabel
\gdef\newlabel#1#2{\newlabelxx{#1}#2}
\gdef\newlabelxx#1#2#3#4#5#6{\oldnewlabel{#1}{{#2}{#3}}}
\AtEndDocument{\ifx\hyper@anchor\@undefined
\let\contentsline\oldcontentsline
\let\newlabel\oldnewlabel
\fi}
\fi}
\global\let\hyper@last\relax 
\gdef\HyperFirstAtBeginDocument#1{#1}
\providecommand\HyField@AuxAddToFields[1]{}
\providecommand\HyField@AuxAddToCoFields[2]{}
\select@language{english}
\@writefile{toc}{\select@language{english}}
\@writefile{lof}{\select@language{english}}
\@writefile{lot}{\select@language{english}}
\newlabel{index::doc}{{}{1}{}{section*.2}{}}
\@writefile{toc}{\contentsline {chapter}{\numberline {1}Handbuch}{3}{chapter.1}}
\@writefile{lof}{\addvspace {10\p@ }}
\@writefile{lot}{\addvspace {10\p@ }}
\newlabel{handbuch:handbuch}{{1}{3}{Handbuch}{chapter.1}{}}
\newlabel{handbuch:welcome-to-handbuch-freemind-s-documentation}{{1}{3}{Handbuch}{chapter.1}{}}
\newlabel{handbuch::doc}{{1}{3}{Handbuch}{chapter.1}{}}
\@writefile{toc}{\contentsline {section}{\numberline {1.1}Freemind}{3}{section.1.1}}
\newlabel{handbuch:freemind}{{1.1}{3}{Freemind}{section.1.1}{}}
\@writefile{toc}{\contentsline {subsection}{\numberline {1.1.1}Vorwort}{3}{subsection.1.1.1}}
\newlabel{handbuch:vorwort}{{1.1.1}{3}{Vorwort}{subsection.1.1.1}{}}
\@writefile{toc}{\contentsline {subsubsection}{Was ist FreeMind und wozu nutze ich es?}{3}{subsubsection*.3}}
\newlabel{handbuch:was-ist-freemind-und-wozu-nutze-ich-es}{{1.1.1}{3}{Was ist FreeMind und wozu nutze ich es?}{subsubsection*.3}{}}
\@writefile{toc}{\contentsline {subsection}{\numberline {1.1.2}Grundlegende Funktionen}{4}{subsection.1.1.2}}
\newlabel{handbuch:grundlegende-funktionen}{{1.1.2}{4}{Grundlegende Funktionen}{subsection.1.1.2}{}}
\@writefile{toc}{\contentsline {subsection}{\numberline {1.1.3}Knoten}{5}{subsection.1.1.3}}
\newlabel{handbuch:knoten}{{1.1.3}{5}{Knoten}{subsection.1.1.3}{}}
\@writefile{toc}{\contentsline {subsubsection}{Neues Projekt erstellen}{5}{subsubsection*.4}}
\newlabel{handbuch:neues-projekt-erstellen}{{1.1.3}{5}{Neues Projekt erstellen}{subsubsection*.4}{}}
\@writefile{toc}{\contentsline {subsubsection}{Knoten erstellen}{5}{subsubsection*.5}}
\newlabel{handbuch:knoten-erstellen}{{1.1.3}{5}{Knoten erstellen}{subsubsection*.5}{}}
\@writefile{toc}{\contentsline {subsubsection}{Knotentext bearbeiten}{5}{subsubsection*.6}}
\newlabel{handbuch:knotentext-bearbeiten}{{1.1.3}{5}{Knotentext bearbeiten}{subsubsection*.6}{}}
\@writefile{toc}{\contentsline {subsubsection}{Knoten l\IeC {\"o}schen}{5}{subsubsection*.7}}
\newlabel{handbuch:knoten-loschen}{{1.1.3}{5}{Knoten löschen}{subsubsection*.7}{}}
\@writefile{toc}{\contentsline {subsubsection}{Bestimmte Knoten suchen}{6}{subsubsection*.8}}
\newlabel{handbuch:bestimmte-knoten-suchen}{{1.1.3}{6}{Bestimmte Knoten suchen}{subsubsection*.8}{}}
\@writefile{toc}{\contentsline {subsubsection}{Grafische Verbindungen einf\IeC {\"u}gen}{6}{subsubsection*.9}}
\newlabel{handbuch:grafische-verbindungen-einfugen}{{1.1.3}{6}{Grafische Verbindungen einfügen}{subsubsection*.9}{}}
\@writefile{toc}{\contentsline {subsection}{\numberline {1.1.4}Icons}{7}{subsection.1.1.4}}
\newlabel{handbuch:icons}{{1.1.4}{7}{Icons}{subsection.1.1.4}{}}
\@writefile{toc}{\contentsline {subsection}{\numberline {1.1.5}Knoten manipulieren}{7}{subsection.1.1.5}}
\newlabel{handbuch:knoten-manipulieren}{{1.1.5}{7}{Knoten manipulieren}{subsection.1.1.5}{}}
\@writefile{toc}{\contentsline {subsubsection}{Format \IeC {\"a}ndern}{7}{subsubsection*.10}}
\newlabel{handbuch:format-andern}{{1.1.5}{7}{Format ändern}{subsubsection*.10}{}}
\@writefile{toc}{\contentsline {subsubsection}{Stile}{8}{subsubsection*.11}}
\newlabel{handbuch:stile}{{1.1.5}{8}{Stile}{subsubsection*.11}{}}
\@writefile{toc}{\contentsline {subsection}{\numberline {1.1.6}Schlusswort}{8}{subsection.1.1.6}}
\newlabel{handbuch:schlusswort}{{1.1.6}{8}{Schlusswort}{subsection.1.1.6}{}}
